{
  "restaurants": [
    {
      "id": 0,
      "nom": "Chamas Tacos",
      "description": "Chamas Tacos® est une chaîne de restauration rapide halal créée en 2014 par deux amis d'enfance grenoblois passionnés de « fast food »",
      "position": {
        "latitude": 45.743728,
        "longitude": 4.854911
      },
      "menus": [
        {
          "menuId": 1,
          "nom": "Tacos classique",
          "prix": 8
        },
        {
          "menuId": 2,
          "nom": "Tacos gratiné",
          "prix": 9
        }
        ,
        {
          "menuId": 2,
          "nom": "X'trême",
          "prix": 13
        }
      ]
    },
    {
      "id": 1,
      "nom": "Le Tacos Lyonnais",
      "description": "Découvrez le menu de Le Tacos Lyonnais Grande Rue de la Guillotière à Lyon et commandez vos plats préférés. Profitez de repas savoureux et d'une livraison à ...",
      "position": {
        "latitude": 45.745929,
        "longitude": 4.850813
      },
      "menus": [
        {
          "menuId": 1,
          "nom": "Menu maxi tacos",
          "prix": 11
        },
        {
          "menuId": 2,
          "nom": "Menu reoulé double",
          "prix": 11
        }
        ,
        {
          "menuId": 3,
          "nom": "Menu maxi tacos Végétarien",
          "prix": 10
        }
      ]
    },
    {
      "id": 2,
      "nom": " MasterTacos Lyon",
      "description": "Plusieurs restaurants pour te servir, Tarare, Lyon, Decines, Roanne. Retrouve toute l'actu sur notre site internet ou sur notre page ...",
      "position": {
        "latitude": 45.756900,
        "longitude": 4.851161
      },
      "menus": [
        {
          "menuId": 1,
          "nom": "Menu Mini",
          "prix": 6.5
        },
        {
          "menuId": 2,
          "nom": "Menu Uno",
          "prix": 8.5
        },
        {
          "menuId": 3,
          "nom": "Menu Quésa",
          "prix": 8
        }
        ,
        {
          "menuId": 4,
          "nom": "Menu Quésa Grande",
          "prix": 12
        }
      ]
    },
    {
      "id": 3,
      "nom": "Otacos",
      "description": "Plusieurs restaurants pour te servir, Tarare, Lyon, Decines, Roanne. Retrouve toute l'actu sur notre site internet ou sur notre page ...",
      "position": {
        "latitude": 45.752652,
        "longitude": 4.831394
      },
      "menus": [
        {
          "menuId": 1,
          "nom": "Menu Mini",
          "prix": 6.5
        },
        {
          "menuId": 2,
          "nom": "Menu Uno",
          "prix": 8.5
        },
        {
          "menuId": 3,
          "nom": "Menu Quésa",
          "prix": 8
        }
        ,
        {
          "menuId": 4,
          "nom": "Menu Quésa Grande",
          "prix": 12
        }
      ]
    }
  ]
}
